{
	"duration":[
		"1",
		"How long are you planning to go on holiday for?",
		["1-3 days", "4-6 days", "7+ days"]
	],
	"destination-type":[
		"1",
		"What's the plan this time?",
		["I'm a foodie!", "It's a family trip", "Sun & Beaches", "Let's go shopping!", "See other options"]
	],
	"foodie": [
		"1",
		"Which year are you currently in?", 
		["Form 3", "Form 4", "Form 5", "Form 6", "Graduated"]
	],
}